graph EdgeSite_1 {
   
   "fake" [function="fake"]
   "oob-mgmt-server"  [function="oob-server" cpu="2" memory="2048" mgmt_ip="192.168.101.1"]
   "oob-mgmt-switch"  [function="oob-switch" mgmt_ip="192.168.101.251" version="4.4.0"]

   "spine01" [function="spine" version="4.4.0" mgmt_ip="192.168.101.31" ports="32"]
   "spine02" [function="spine" version="4.4.0" mgmt_ip="192.168.101.32" ports="32"]
   "spine03" [function="spine" version="4.4.0" mgmt_ip="192.168.101.33" ports="32"]
   "spine04" [function="spine" version="4.4.0" mgmt_ip="192.168.101.34" ports="32"]
   "fw1" [function="leaf" version="4.4.0" mgmt_ip="192.168.101.61"]
   "leaf01" [function="leaf" version="4.4.0" mgmt_ip="192.168.101.21" ports="54"]
   "leaf02" [function="leaf" version="4.4.0" mgmt_ip="192.168.101.22" ports="54"]
   "leaf03" [function="leaf" version="4.4.0" mgmt_ip="192.168.101.23" ports="54"]
   "leaf04" [function="leaf" version="4.4.0" mgmt_ip="192.168.101.24" ports="54"]
   "border01" [function="exit" version="4.4.0" mgmt_ip="192.168.101.63" ports="54"]
   "border02" [function="exit" version="4.4.0" mgmt_ip="192.168.101.64" ports="54"]
   
   "hypervisor01" [function="host" os="generic/ubuntu1804" nic_model="e1000" mgmt_ip="192.168.101.3"]
   "vm01" [function="host" cpu="4" memory="4096" os="generic/ubuntu1804" nic_model="e1000" mgmt_ip="192.168.101.9"]
   "vm02" [function="host" cpu="4" memory="4096" os="generic/ubuntu1804" nic_model="e1000" mgmt_ip="192.168.101.10"]
   "hypervisor02" [function="host" os="generic/ubuntu1804" nic_model="e1000" mgmt_ip="192.168.101.4"]
   "vm03" [function="host" cpu="4" memory="4096" os="generic/ubuntu1804" nic_model="e1000" mgmt_ip="192.168.101.11"]
   "vm04" [function="host" cpu="4" memory="4096" os="generic/ubuntu1804" nic_model="e1000" mgmt_ip="192.168.101.12"]
   "hypervisor03" [function="host" os="generic/ubuntu1804" nic_model="e1000" mgmt_ip="192.168.101.5"]
   "vm05" [function="host" cpu="4" memory="4096" os="generic/ubuntu1804" nic_model="e1000" mgmt_ip="192.168.101.13"]
   "vm06" [function="host" cpu="4" memory="4096" os="generic/ubuntu1804" nic_model="e1000" mgmt_ip="192.168.101.14"]
   "hypervisor04" [function="host" os="generic/ubuntu1804" nic_model="e1000" mgmt_ip="192.168.101.6"]
   "vm07" [function="host" cpu="4" memory="4096" os="generic/ubuntu1804" nic_model="e1000" mgmt_ip="192.168.101.15"]
   "vm08" [function="host" cpu="4" memory="4096" os="generic/ubuntu1804" nic_model="e1000" mgmt_ip="192.168.101.16"]
   "server05" [function="host" cpu="4" memory="4096" os="generic/ubuntu1804" nic_model="e1000" mgmt_ip="192.168.101.7"]
   "server06" [function="host" cpu="4" memory="4096" os="generic/ubuntu1804" nic_model="e1000" mgmt_ip="192.168.101.8"]
   
   "spine01":"swp1" -- "leaf01":"swp51"
   "spine02":"swp1" -- "leaf01":"swp52"
   "spine03":"swp1" -- "leaf01":"swp53"
   "spine04":"swp1" -- "leaf01":"swp54"
   "spine01":"swp2" -- "leaf02":"swp51"
   "spine02":"swp2" -- "leaf02":"swp52"
   "spine03":"swp2" -- "leaf02":"swp53"
   "spine04":"swp2" -- "leaf02":"swp54"
   "spine01":"swp3" -- "leaf03":"swp51"
   "spine02":"swp3" -- "leaf03":"swp52"
   "spine03":"swp3" -- "leaf03":"swp53"
   "spine04":"swp3" -- "leaf03":"swp54"
   "spine01":"swp4" -- "leaf04":"swp51"
   "spine02":"swp4" -- "leaf04":"swp52"
   "spine03":"swp4" -- "leaf04":"swp53"
   "spine04":"swp4" -- "leaf04":"swp54"
   "spine01":"swp5" -- "border01":"swp51"
   "spine02":"swp5" -- "border01":"swp52"
   "spine03":"swp5" -- "border01":"swp53"
   "spine04":"swp5" -- "border01":"swp54"
   "spine01":"swp6" -- "border02":"swp51"
   "spine02":"swp6" -- "border02":"swp52"
   "spine03":"swp6" -- "border02":"swp53"
   "spine04":"swp6" -- "border02":"swp54"

   "leaf01":"swp1" -- "hypervisor01":"eth1"
   "leaf01":"swp2" -- "hypervisor02":"eth1" 
   "leaf02":"swp1" -- "hypervisor01":"eth2"
   "leaf02":"swp2" -- "hypervisor02":"eth2"
   "leaf03":"swp1" -- "hypervisor03":"eth1"
   "leaf03":"swp2" -- "hypervisor04":"eth1"
   "leaf04":"swp1" -- "hypervisor03":"eth2"
   "leaf04":"swp2" -- "hypervisor04":"eth2"
   "border01":"swp1" -- "server05":"eth1"
   "border01":"swp2" -- "server06":"eth1"
   "border01":"swp3" -- "fw1":"swp1"
   "border02":"swp1" -- "server05":"eth2"
   "border02":"swp2" -- "server06":"eth2"
   "border02":"swp3" -- "fw1":"swp2"

   "leaf01":"swp49" -- "leaf02":"swp49"
   "leaf01":"swp50" -- "leaf02":"swp50"
   "leaf03":"swp49" -- "leaf04":"swp49"
   "leaf03":"swp50" -- "leaf04":"swp50"
   "border01":"swp49" -- "border02":"swp49"
   "border01":"swp50" -- "border02":"swp50"
   
   "hypervisor01":"eth3" -- "vm01":"eth1"
   "hypervisor01":"eth4" -- "vm02":"eth1"
   "hypervisor01":"eth5" -- "vm01":"eth2"
   "hypervisor01":"eth6" -- "vm02":"eth2"
   
   "hypervisor02":"eth3" -- "vm03":"eth1"
   "hypervisor02":"eth4" -- "vm04":"eth1"
   "hypervisor02":"eth5" -- "vm03":"eth2"
   "hypervisor02":"eth6" -- "vm04":"eth2"
   
   "hypervisor03":"eth3" -- "vm05":"eth1"
   "hypervisor03":"eth4" -- "vm06":"eth1"
   "hypervisor03":"eth5" -- "vm05":"eth2"
   "hypervisor03":"eth6" -- "vm06":"eth2"

   "hypervisor04":"eth3" -- "vm07":"eth1"
   "hypervisor04":"eth4" -- "vm08":"eth1"
   "hypervisor04":"eth5" -- "vm07":"eth2"
   "hypervisor04":"eth6" -- "vm08":"eth2"

   "fw1":"swp49" -- "fake":"outbound"

   "oob-mgmt-server":"eth1" -- "oob-mgmt-switch":"swp1"
   "hypervisor01":"eth0" -- "oob-mgmt-switch":"swp2" [left_mac="44:38:39:22:02:7e"]
   "vm01":"eth0" -- "oob-mgmt-switch":"swp3" [left_mac="44:38:39:22:02:71"]
   "vm02":"eth0" -- "oob-mgmt-switch":"swp4" [left_mac="44:38:39:22:02:72"]
   "hypervisor02":"eth0" -- "oob-mgmt-switch":"swp5" [left_mac="44:38:39:22:02:6e"]
   "vm03":"eth0" -- "oob-mgmt-switch":"swp6" [left_mac="44:38:39:22:02:65"]
   "vm04":"eth0" -- "oob-mgmt-switch":"swp7" [left_mac="44:38:39:22:02:67"]  
   "hypervisor03":"eth0" -- "oob-mgmt-switch":"swp8" [left_mac="44:38:39:22:02:90"]
   "vm05":"eth0" -- "oob-mgmt-switch":"swp9" [left_mac="44:38:39:22:02:91"]
   "vm06":"eth0" -- "oob-mgmt-switch":"swp10" [left_mac="44:38:39:22:02:93"]
   "hypervisor04":"eth0" -- "oob-mgmt-switch":"swp11" [left_mac="44:38:39:22:02:6a"]
   "vm07":"eth0" -- "oob-mgmt-switch":"swp12" [left_mac="44:38:39:22:02:68"]
   "vm08":"eth0" -- "oob-mgmt-switch":"swp13" [left_mac="44:38:39:22:02:69"]  
   "server05":"eth0" -- "oob-mgmt-switch":"swp14" [left_mac="44:38:39:22:02:88"]
   "server06":"eth0" -- "oob-mgmt-switch":"swp15" [left_mac="44:38:39:22:02:86"]
   "leaf01":"eth0" -- "oob-mgmt-switch":"swp16" [left_mac="44:38:39:22:02:7a"]
   "leaf02":"eth0" -- "oob-mgmt-switch":"swp17" [left_mac="44:38:39:22:02:78"]
   "leaf03":"eth0" -- "oob-mgmt-switch":"swp18" [left_mac="44:38:39:22:02:84"]
   "leaf04":"eth0" -- "oob-mgmt-switch":"swp19" [left_mac="44:38:39:22:02:8a"]
   "spine01":"eth0" -- "oob-mgmt-switch":"swp20" [left_mac="44:38:39:22:02:82"]
   "spine02":"eth0" -- "oob-mgmt-switch":"swp21" [left_mac="44:38:39:22:02:92"]
   "spine03":"eth0" -- "oob-mgmt-switch":"swp22" [left_mac="44:38:39:22:02:70"]
   "spine04":"eth0" -- "oob-mgmt-switch":"swp23" [left_mac="44:38:39:22:02:6c"]
   "fw1":"eth0" -- "oob-mgmt-switch":"swp24" [left_mac="44:38:39:22:02:8c"]
   "border01":"eth0" -- "oob-mgmt-switch":"swp25" [left_mac="44:38:39:22:02:74"]
   "border02":"eth0" -- "oob-mgmt-switch":"swp26" [left_mac="44:38:39:22:02:7c"]
}